INDEX VERSION 1.127+C:\Users\JP\workspace\EpiProjekt\.metadata\.plugins\org.eclipse.jdt.core
323251068.index
1787405673.index
994834796.index
2535676096.index
1017853417.index
605290374.index
355369697.index
3604769962.index
1045485630.index
115418958.index
3045053200.index
304605143.index
2674037006.index
3954291735.index
3716007315.index
3656756579.index
1337478678.index
4187470955.index
533208796.index
